-2.913601398468017578e-01,3.873613476753234863e-01,7.662639766931533813e-02,1.812718808650970459e-01,-6.052763462066650391e-01,4.085028544068336487e-02,-6.799204945564270020e-01,-2.064155414700508118e-02,1.399818211793899536e-01,5.588834285736083984e-01,-1.139648929238319397e-01,-3.035010695457458496e-01,4.069470465183258057e-01,7.577224373817443848e-01,1.178531527519226074e+00,6.807498931884765625e-01,-6.366460919380187988e-01,7.744545340538024902e-01,1.823409497737884521e-01,2.515279687941074371e-03,-6.243019700050354004e-01,2.850220501422882080e-01,-7.241240888833999634e-02,-8.393456786870956421e-02,-1.025758504867553711e+00,-1.019390463829040527e+00,-8.605707883834838867e-01,4.645478352904319763e-02,-7.219009846448898315e-02,2.461276203393936157e-02
-9.244474023580551147e-02,-4.214761555194854736e-01,-8.753740191459655762e-01,4.398207366466522217e-01,-4.498630464076995850e-01,-5.856800079345703125e-02,2.066412866115570068e-01,-4.153038859367370605e-01,8.315997719764709473e-01,7.189584970474243164e-01,-1.091533064842224121e+00,-4.754478335380554199e-01,-5.605964660644531250e-01,2.725077569484710693e-01,-3.478213772177696228e-02,8.543523401021957397e-02,3.462161421775817871e-01,7.381360530853271484e-01,2.399132698774337769e-01,1.145892381668090820e+00,-1.108487844467163086e-01,-6.196132302284240723e-01,3.054880499839782715e-01,-3.057541549205780029e-01,-7.422374486923217773e-01,-6.470256447792053223e-01,-1.125712275505065918e+00,6.070244312286376953e-01,6.960543394088745117e-01,-5.692327618598937988e-01
7.936341762542724609e-01,5.246504545211791992e-01,4.668906331062316895e-02,-2.378021627664566040e-01,6.513253599405288696e-02,-4.235664904117584229e-01,8.652998805046081543e-01,1.813259840011596680e+00,2.538318634033203125e-01,1.539081573486328125e+00,-3.397926315665245056e-02,1.015458926558494568e-01,-3.019067645072937012e-01,7.545452117919921875e-01,1.322177529335021973e+00,-5.650416016578674316e-01,-7.192186117172241211e-01,4.224103093147277832e-01,1.110136628150939941e+00,7.579916119575500488e-01,4.501507617533206940e-03,-4.473435282707214355e-01,3.357282280921936035e-01,2.461953163146972656e-01,-1.227126479148864746e+00,-1.092587828636169434e+00,-3.350957036018371582e-01,-2.236014753580093384e-01,8.965418338775634766e-01,-6.115245819091796875e-01
7.573989629745483398e-01,6.742504835128784180e-01,1.437100470066070557e-01,1.776694059371948242e-01,8.148091435432434082e-01,1.212683439254760742e+00,6.489197015762329102e-01,4.144235849380493164e-01,-2.534718513488769531e-01,-2.073836475610733032e-01,-9.204894304275512695e-01,5.911847352981567383e-01,-7.403997778892517090e-01,-1.047554761171340942e-01,-1.297653932124376297e-02,1.483486443758010864e-01,-4.764468967914581299e-01,9.752948284149169922e-01,-9.994269907474517822e-02,1.709800511598587036e-01,-1.019335389137268066e+00,1.190937042236328125e+00,5.560414791107177734e-01,-1.347963809967041016e+00,-2.177866995334625244e-01,3.087394833564758301e-01,4.421669542789459229e-01,-6.298431158065795898e-01,7.012819647789001465e-01,6.151714920997619629e-02
9.900478273630142212e-02,-2.267040014266967773e-01,-1.036725401878356934e+00,4.159817099571228027e-01,9.588769078254699707e-01,8.716720938682556152e-01,-4.179952740669250488e-01,-2.765146195888519287e-01,-7.764654606580734253e-02,2.396114468574523926e-01,-1.840617060661315918e-01,-4.626392126083374023e-01,-7.144290804862976074e-01,-5.451864600181579590e-01,1.408434033393859863e+00,1.035696864128112793e+00,-4.881654866039752960e-03,8.767791390419006348e-01,1.542917132377624512e+00,4.482406675815582275e-01,-2.542712390422821045e-01,1.057063221931457520e+00,-9.517918825149536133e-01,-2.195586822926998138e-02,-3.829401731491088867e-01,5.735798478126525879e-01,-3.610279560089111328e-01,-4.808245599269866943e-01,7.487562894821166992e-01,6.669827699661254883e-01
1.494751334190368652e+00,8.266525268554687500e-01,-1.255782365798950195e+00,-1.563530206680297852e+00,1.275108337402343750e+00,-6.021030545234680176e-01,-5.926035046577453613e-01,1.977168440818786621e+00,2.631990909576416016e+00,9.607139229774475098e-01,-3.817056715488433838e-01,-1.274468600749969482e-01,6.599404811859130859e-01,2.140266656875610352e+00,3.454178094863891602e+00,1.855180025100708008e+00,-1.581009328365325928e-01,-3.492920994758605957e-01,3.185485363006591797e+00,1.606687188148498535e+00,-2.123622894287109375e+00,6.015475392341613770e-01,-1.160817027091979980e+00,-2.273189306259155273e+00,-9.800061583518981934e-01,-2.223287820816040039e+00,-4.063393175601959229e-01,3.319829702377319336e-02,1.876723766326904297e+00,-1.571474075317382812e+00
-7.478733658790588379e-01,-7.357632517814636230e-01,3.473623096942901611e-02,-1.117081567645072937e-01,7.677576690912246704e-02,-6.449849009513854980e-01,3.251129090785980225e-01,6.173433661460876465e-01,8.093355894088745117e-01,1.750037968158721924e-01,6.086146235466003418e-01,2.480602264404296875e-01,-8.353946805000305176e-01,6.456327438354492188e-01,-1.003522634506225586e+00,-1.434831134974956512e-02,-4.745367765426635742e-01,-8.979329466819763184e-01,4.592583477497100830e-01,-3.585747778415679932e-01,-1.089010000228881836e+00,3.122426867485046387e-01,-7.999411225318908691e-01,-1.191802322864532471e-01,-4.721585810184478760e-01,-6.193168163299560547e-01,5.105815529823303223e-01,-2.587693631649017334e-01,-4.255973696708679199e-01,4.386964142322540283e-01
8.447598814964294434e-01,1.793449372053146362e-01,-1.296847939491271973e+00,-1.319512724876403809e-01,1.556954503059387207e+00,4.058811664581298828e-01,1.370846182107925415e-01,9.029225707054138184e-01,3.456230834126472473e-02,1.661325931549072266e+00,-3.867819905281066895e-01,4.408789277076721191e-01,9.081629514694213867e-01,9.341683387756347656e-01,1.136438131332397461e+00,3.347654938697814941e-01,-3.089587092399597168e-01,-5.074623227119445801e-01,1.411765098571777344e+00,3.728391528129577637e-01,-5.301598310470581055e-01,-2.820546030998229980e-01,-2.386632002890110016e-02,-1.658124476671218872e-01,-1.030590891838073730e+00,-9.160207509994506836e-01,-5.485838651657104492e-01,8.146326541900634766e-01,1.707992851734161377e-01,7.917079329490661621e-01
9.413933157920837402e-01,1.612005680799484253e-01,-1.737014174461364746e+00,-8.312484025955200195e-01,6.091684103012084961e-01,1.657734811305999756e-01,1.115220665931701660e+00,1.988726973533630371e+00,1.602609395980834961e+00,1.755463004112243652e+00,-8.636871576309204102e-01,7.773995995521545410e-01,6.737690567970275879e-01,8.522855043411254883e-01,1.418066859245300293e+00,-1.246317401528358459e-01,4.428618252277374268e-01,4.182827174663543701e-01,3.488161325454711914e+00,1.321553826332092285e+00,-9.487162232398986816e-01,4.578499495983123779e-01,1.533923950046300888e-02,-1.193345546722412109e+00,-8.169938325881958008e-01,-1.728919982910156250e+00,-8.636493235826492310e-02,-3.051642477512359619e-01,1.638084173202514648e+00,-9.396847486495971680e-01
-8.346235752105712891e-02,2.164941281080245972e-01,-1.493461489677429199e+00,8.795225024223327637e-01,1.395778179168701172e+00,1.483456969261169434e+00,-3.107047379016876221e-01,9.502923488616943359e-01,1.568881869316101074e+00,9.110253453254699707e-01,-8.801879286766052246e-01,1.130948588252067566e-02,4.822135865688323975e-01,9.670896530151367188e-01,1.429954409599304199e+00,2.600398361682891846e-01,5.741260051727294922e-01,-5.165566802024841309e-01,8.420432209968566895e-01,9.083199501037597656e-01,-1.125649333000183105e+00,8.514767289161682129e-01,-6.106798648834228516e-01,-5.795915126800537109e-01,-3.187023401260375977e-01,-2.932498753070831299e-01,-1.087319254875183105e+00,3.783694207668304443e-01,1.762766599655151367e+00,-1.780043840408325195e-01
-2.562054097652435303e-01,-9.998045116662979126e-02,1.798743456602096558e-01,1.560270488262176514e-01,-2.281200885772705078e-01,2.545936703681945801e-01,9.365965127944946289e-01,-4.920805096626281738e-01,6.382849812507629395e-01,6.518515944480895996e-01,-6.700239181518554688e-01,4.699060320854187012e-01,-3.282667100429534912e-01,4.143335819244384766e-01,2.757600843906402588e-01,-3.297179937362670898e-01,-7.749919891357421875e-01,8.944846987724304199e-01,1.585955500602722168e+00,-2.156680673360824585e-01,-1.437464635819196701e-02,-7.451473474502563477e-01,-2.398831546306610107e-01,-1.376700997352600098e+00,5.440743565559387207e-01,-1.346275508403778076e-01,1.367413103580474854e-01,-6.979451179504394531e-01,1.304866194725036621e+00,-2.190058231353759766e-01
-7.057440876960754395e-01,-6.118786334991455078e-01,-6.995956301689147949e-01,5.385788530111312866e-02,4.566797316074371338e-01,7.967820763587951660e-02,3.981921672821044922e-01,2.299877554178237915e-01,-3.081717491149902344e-01,7.907251119613647461e-01,-1.772895157337188721e-01,7.848226428031921387e-01,-9.879776239395141602e-01,3.022704124450683594e-01,2.558834552764892578e-01,-3.073530495166778564e-01,1.366993635892868042e-01,-7.510892748832702637e-01,4.956252574920654297e-01,6.873306035995483398e-01,1.719385832548141479e-01,1.042133688926696777e+00,-1.821887195110321045e-01,-1.091259002685546875e+00,-7.615646719932556152e-01,1.480862200260162354e-01,4.548023641109466553e-01,-3.259704709053039551e-01,4.534300416707992554e-02,2.329016029834747314e-01
6.157845258712768555e-01,-2.624253034591674805e-01,-1.601390004158020020e+00,-6.429172754287719727e-01,1.454735755920410156e+00,5.892518162727355957e-01,1.170235514640808105e+00,2.298727273941040039e+00,1.914970874786376953e+00,1.061229944229125977e+00,-1.007430672645568848e+00,2.912720143795013428e-01,1.906336426734924316e+00,4.042005240917205811e-01,9.521707892417907715e-01,7.783951759338378906e-01,7.816942930221557617e-01,7.919646501541137695e-01,2.667559146881103516e+00,3.229089379310607910e-01,-2.619199752807617188e-01,-4.780267179012298584e-01,-8.151026368141174316e-01,-1.918854951858520508e+00,-1.178947210311889648e+00,-2.097166538238525391e+00,7.954792119562625885e-03,3.078157305717468262e-01,1.321895271539688110e-01,-9.655044414103031158e-03
-3.933763206005096436e-01,-7.316648364067077637e-01,-1.904481291770935059e+00,-9.027372300624847412e-02,2.567782700061798096e-01,9.095622897148132324e-01,-8.002657890319824219e-01,1.906072258949279785e+00,8.678799867630004883e-01,7.157439589500427246e-01,3.157432079315185547e-01,-2.655966579914093018e-01,2.220250964164733887e-01,1.524033904075622559e+00,6.127930283546447754e-01,-5.228309035301208496e-01,3.547810912132263184e-01,4.471794366836547852e-01,3.326674222946166992e+00,9.029660820960998535e-01,1.114189997315406799e-02,-2.213328629732131958e-01,2.800493538379669189e-01,-1.378157258033752441e+00,-1.353135943412780762e+00,-4.812726676464080811e-01,-1.892767101526260376e-01,4.601146280765533447e-01,1.084676027297973633e+00,1.746794730424880981e-01
-1.678565293550491333e-01,9.945518970489501953e-01,-1.573946475982666016e+00,-1.002738356590270996e+00,1.268079638481140137e+00,1.050627350807189941e+00,-6.367446184158325195e-01,6.962140798568725586e-01,1.400689125061035156e+00,8.071538805961608887e-01,-4.060730338096618652e-01,-1.276731491088867188e-01,-6.897107958793640137e-01,1.850991845130920410e+00,1.929306983947753906e+00,3.405949175357818604e-01,-1.006476879119873047e+00,1.317333459854125977e+00,1.759280085563659668e+00,2.829191982746124268e-01,-1.142322301864624023e+00,7.677824795246124268e-02,3.134568929672241211e-01,-8.384974002838134766e-01,-9.345706105232238770e-01,-1.091227531433105469e+00,-1.007132172584533691e+00,1.007702350616455078e+00,2.262675046920776367e+00,3.136801421642303467e-01
-1.082660317420959473e+00,1.391300559043884277e+00,-6.452096253633499146e-02,1.323243021965026855e+00,4.262224733829498291e-01,1.236892223358154297e+00,9.923748373985290527e-01,-4.309969544410705566e-01,4.196339845657348633e-02,1.824339389801025391e+00,1.926435679197311401e-01,3.543705940246582031e-01,-8.278610706329345703e-01,5.047794580459594727e-01,3.639867603778839111e-01,1.102581918239593506e-01,-7.637192010879516602e-01,2.262496352195739746e-01,5.921409726142883301e-01,7.295914888381958008e-01,-5.260587930679321289e-01,3.477293550968170166e-01,-7.946778535842895508e-01,-4.572172760963439941e-01,-1.672857522964477539e+00,8.184264414012432098e-03,-9.498429298400878906e-01,-7.355011701583862305e-01,7.447635531425476074e-01,4.208195805549621582e-01
4.229209423065185547e-01,3.297119438648223877e-01,-8.865160346031188965e-01,8.296330571174621582e-01,-7.384489774703979492e-01,5.636804699897766113e-01,7.652450799942016602e-01,3.583585470914840698e-02,-5.685003399848937988e-01,8.308322429656982422e-01,-7.694093585014343262e-01,-2.435114085674285889e-01,-8.360726833343505859e-01,1.564184725284576416e-01,4.253408312797546387e-01,-8.225012421607971191e-01,2.178524136543273926e-01,-3.362952470779418945e-01,-2.086518108844757080e-01,4.629179239273071289e-01,-9.807860255241394043e-01,8.335952162742614746e-01,-8.500586748123168945e-01,-6.609344482421875000e-01,8.130368590354919434e-02,6.167342662811279297e-01,-4.083181023597717285e-01,-1.021629646420478821e-01,-8.332682251930236816e-01,6.133684515953063965e-01
-1.185387820005416870e-01,3.234807774424552917e-02,-5.101900696754455566e-01,1.413326114416122437e-01,1.060736775398254395e-01,1.269152283668518066e+00,-2.925124466419219971e-01,1.432643532752990723e-01,8.386186957359313965e-01,4.208744466304779053e-01,-7.912498116493225098e-01,-1.539963856339454651e-02,5.747457742691040039e-01,9.693466424942016602e-01,-1.846233755350112915e-01,-3.755517005920410156e-01,-1.980095356702804565e-01,6.834251880645751953e-01,1.093629956245422363e+00,-6.340847611427307129e-01,-4.356920719146728516e-01,1.082445979118347168e+00,7.100728899240493774e-02,7.687758207321166992e-01,2.801814377307891846e-01,-9.773071408271789551e-01,1.612421125173568726e-01,1.657083332538604736e-01,8.297352194786071777e-01,-5.402278304100036621e-01
3.275642991065979004e-01,-1.702310740947723389e-01,-7.815406322479248047e-01,-3.693415820598602295e-01,1.084781885147094727e+00,-4.877017736434936523e-01,8.937252759933471680e-01,1.504184246063232422e+00,9.127694368362426758e-01,1.741847276687622070e+00,9.810929745435714722e-02,6.717994809150695801e-01,1.167147517204284668e+00,6.269857883453369141e-01,1.470557332038879395e+00,-5.327172279357910156e-01,-3.009907901287078857e-01,-4.263747036457061768e-01,1.620558857917785645e+00,1.250469535589218140e-01,-8.921279311180114746e-01,4.986396729946136475e-01,-3.647959530353546143e-01,-5.237656235694885254e-01,-1.845311641693115234e+00,-1.833257913589477539e+00,-9.383316040039062500e-01,3.332191407680511475e-01,2.535075664520263672e+00,-6.527218818664550781e-01
-3.267229795455932617e-01,1.767693877220153809e+00,-1.494010567665100098e+00,-2.728851735591888428e-01,5.639342069625854492e-01,5.565201640129089355e-01,-5.996008515357971191e-01,7.130593061447143555e-01,9.832354187965393066e-01,1.466392159461975098e+00,-7.212599515914916992e-01,2.424428761005401611e-01,5.853766798973083496e-01,1.406711220741271973e+00,1.374287009239196777e+00,3.361917436122894287e-01,-1.508078932762145996e+00,4.760169088840484619e-01,2.530775308609008789e+00,-2.025498598814010620e-01,-1.047206163406372070e+00,4.158509075641632080e-01,-1.003058552742004395e+00,-1.190816998481750488e+00,-1.023225188255310059e+00,-1.037755846977233887e+00,-7.306641340255737305e-01,-4.902854859828948975e-01,1.654674768447875977e+00,4.219808056950569153e-02
-3.324105739593505859e-01,1.189919337630271912e-01,-1.352668046951293945e+00,-5.262221693992614746e-01,-2.535957396030426025e-01,9.068740010261535645e-01,-7.104020565748214722e-02,1.080919146537780762e+00,1.278250962495803833e-01,-2.630359828472137451e-01,5.758821964263916016e-01,4.593125283718109131e-01,8.399248719215393066e-01,-1.585693359375000000e-01,-5.213088393211364746e-01,1.074022412300109863e+00,-5.668991208076477051e-01,-6.807658672332763672e-01,1.330005884170532227e+00,-1.520575433969497681e-01,-3.700306415557861328e-01,-4.134558737277984619e-01,-4.696177840232849121e-01,-1.050187468528747559e+00,-5.724057555198669434e-01,-1.320811271667480469e+00,-1.403945088386535645e-01,1.358589828014373779e-01,-3.292795717716217041e-01,-6.652080416679382324e-01
2.416270017623901367e+00,-1.020159244537353516e+00,-3.146444320678710938e+00,-1.779531598091125488e+00,2.284745931625366211e+00,5.073888897895812988e-01,-2.988928556442260742e-01,3.311117410659790039e+00,4.229844093322753906e+00,3.173126697540283203e+00,-3.823986947536468506e-01,8.877297043800354004e-01,8.865255117416381836e-01,3.874613761901855469e+00,3.321438550949096680e+00,2.216096162796020508e+00,-4.558568820357322693e-02,2.939130924642086029e-02,6.932744503021240234e+00,1.905338048934936523e+00,-1.663975238800048828e+00,1.247082829475402832e+00,-1.650906562805175781e+00,-2.794557094573974609e+00,-2.552660226821899414e+00,-2.584856271743774414e+00,-1.458964586257934570e+00,-4.053641855716705322e-02,2.898874998092651367e+00,-3.516774177551269531e-01
1.202158808708190918e+00,-5.499520301818847656e-01,-1.516662955284118652e+00,-7.165796756744384766e-01,8.792172670364379883e-01,-4.230306744575500488e-01,-5.095483064651489258e-01,1.160776376724243164e+00,1.831643462181091309e+00,5.786597132682800293e-01,-8.521482944488525391e-01,2.246338725090026855e-01,8.351312279701232910e-01,1.483127236366271973e+00,7.838727235794067383e-01,8.451898694038391113e-01,-2.936897277832031250e-01,1.447868496179580688e-01,1.301787853240966797e+00,1.006484329700469971e-01,-1.571421921253204346e-01,3.538348674774169922e-01,-9.016801118850708008e-01,-2.053329706192016602e+00,1.537376046180725098e-01,-1.405276417732238770e+00,1.902162581682205200e-01,-1.607094556093215942e-01,1.005848765373229980e+00,4.298205077648162842e-01
1.877752989530563354e-01,2.879819571971893311e-01,9.991637617349624634e-02,-4.642383158206939697e-01,-2.943772971630096436e-01,7.644259184598922729e-02,4.833833575248718262e-01,-5.911920666694641113e-01,-2.897626459598541260e-01,9.486932754516601562e-01,4.760592281818389893e-01,3.549776375293731689e-01,1.509849280118942261e-01,-2.713892161846160889e-01,9.811466932296752930e-01,2.855338752269744873e-01,5.478941798210144043e-01,-4.007490277290344238e-01,3.454996049404144287e-01,9.159920811653137207e-01,-4.706083536148071289e-01,2.188574075698852539e-01,-1.116597056388854980e-01,-6.002832651138305664e-01,-7.737780809402465820e-01,-4.827085137367248535e-01,-1.000874519348144531e+00,8.209085464477539062e-01,8.988109230995178223e-01,-1.173863336443901062e-01
-5.060099363327026367e-01,8.426241278648376465e-01,4.759086370468139648e-01,1.095283865928649902e+00,-3.303737938404083252e-01,6.295943856239318848e-01,-1.814853847026824951e-01,1.816744804382324219e-01,-1.205060165375471115e-02,9.767750501632690430e-01,-3.588742315769195557e-01,7.311897277832031250e-01,1.066234350204467773e+00,3.118761256337165833e-02,-1.826546341180801392e-01,-2.261457443237304688e-01,-7.427362799644470215e-01,-7.515711188316345215e-01,-4.396015033125877380e-02,-2.787720561027526855e-01,5.442088842391967773e-01,-2.951128780841827393e-02,-5.092418789863586426e-01,-9.242854118347167969e-01,1.012063980102539062e+00,-1.714694947004318237e-01,-3.465614914894104004e-01,1.545128971338272095e-01,-2.534212470054626465e-01,3.153929710388183594e-01
6.201610565185546875e-01,2.751285135746002197e-01,-2.795454300940036774e-02,9.257624149322509766e-01,-4.370884895324707031e-01,-2.946315705776214600e-01,4.261122271418571472e-02,-3.637290596961975098e-01,4.939312338829040527e-01,-7.892584800720214844e-02,-2.731057107448577881e-01,-3.857196569442749023e-01,-5.640655755996704102e-01,6.218281388282775879e-01,4.079200327396392822e-01,1.793401688337326050e-01,1.493007093667984009e-01,-1.360098719596862793e-01,-1.172544583678245544e-01,8.995922207832336426e-01,-7.406835556030273438e-01,-9.595768153667449951e-02,-6.052168011665344238e-01,-6.038222312927246094e-01,-5.216869711875915527e-01,1.662005335092544556e-01,-4.259169995784759521e-01,9.760566353797912598e-01,-4.634491503238677979e-01,-1.589429378509521484e-01
8.140934109687805176e-01,2.549269199371337891e-01,7.065579891204833984e-01,-5.918337106704711914e-01,9.314936399459838867e-01,4.392707943916320801e-01,-3.140953481197357178e-01,-8.792802095413208008e-01,-7.921718060970306396e-02,-1.799093782901763916e-01,6.680845618247985840e-01,-2.937779426574707031e-01,-9.230500459671020508e-01,4.651718139648437500e-01,5.122420191764831543e-01,-6.444153189659118652e-02,3.652957081794738770e-01,-1.308388859033584595e-01,4.108313620090484619e-01,-1.891968846321105957e-01,-1.900882720947265625e-01,-4.735066592693328857e-01,-3.538455665111541748e-01,-9.192419052124023438e-01,-3.454811573028564453e-01,-1.006106376647949219e+00,-2.872955501079559326e-01,6.024192571640014648e-01,6.470132470130920410e-01,-7.652369737625122070e-01
6.053409576416015625e-01,-4.193235039710998535e-01,4.492441117763519287e-01,-8.931819796562194824e-01,1.362015128135681152e+00,-4.324539303779602051e-01,-8.003710508346557617e-01,9.529358148574829102e-01,1.072853446006774902e+00,5.268374085426330566e-01,-1.438811868429183960e-01,6.418624520301818848e-01,-2.831764519214630127e-01,2.031387388706207275e-01,-9.829396009445190430e-02,1.053192615509033203e+00,-5.566935539245605469e-01,-5.954927802085876465e-01,9.192555546760559082e-01,-2.637631893157958984e-01,-5.292255878448486328e-01,6.832030415534973145e-01,-8.653921484947204590e-01,-9.355917572975158691e-01,-9.698017835617065430e-01,-6.756387948989868164e-01,8.451636433601379395e-01,9.866268932819366455e-02,2.320989668369293213e-01,-4.186573922634124756e-01
2.001341283321380615e-01,2.844535112380981445e-01,-5.092367529869079590e-01,-1.181461453437805176e+00,7.929570078849792480e-01,1.100616335868835449e+00,-2.638987004756927490e-01,-2.522512674331665039e-01,1.624421834945678711e+00,2.048453569412231445e+00,5.721542239189147949e-01,1.088704094290733337e-01,3.286871314048767090e-01,9.124395847320556641e-01,5.717674493789672852e-01,2.084693461656570435e-01,-1.450954675674438477e+00,1.086866736412048340e+00,1.439962267875671387e+00,-3.282192051410675049e-01,-2.207018285989761353e-01,-6.395363062620162964e-02,-3.831865489482879639e-01,-2.479345649480819702e-01,-9.248338937759399414e-01,1.325000822544097900e-01,-8.558041453361511230e-01,7.138453722000122070e-01,8.232448101043701172e-01,-1.231201216578483582e-01
-3.374009132385253906e-01,9.728131443262100220e-02,-4.103955626487731934e-01,-1.660122424364089966e-01,3.164684772491455078e-01,1.090633392333984375e+00,-4.956884384155273438e-01,-3.356159031391143799e-01,-3.720855116844177246e-01,7.053642868995666504e-01,1.520827412605285645e-01,-3.323103189468383789e-01,-7.257943153381347656e-01,3.476564884185791016e-01,8.142558336257934570e-01,-4.276466965675354004e-01,-3.381226360797882080e-01,-3.164689242839813232e-01,1.323396921157836914e+00,3.510770201683044434e-01,-7.659642696380615234e-01,-4.143913090229034424e-02,4.774871747940778732e-03,1.532001346349716187e-01,2.845117747783660889e-01,3.191346824169158936e-01,5.790854096412658691e-01,-7.816730141639709473e-01,-5.848096013069152832e-01,-4.272175021469593048e-03
8.536759614944458008e-01,-2.967677116394042969e-01,-5.214819312095642090e-01,-1.156488776206970215e+00,9.977189302444458008e-01,6.020079255104064941e-01,-1.033155173063278198e-01,1.752589702606201172e+00,1.656452417373657227e+00,7.248064875602722168e-01,-1.058840870857238770e+00,6.592472195625305176e-01,-2.955332398414611816e-01,1.454140901565551758e+00,6.310334801673889160e-01,2.176333963871002197e-01,-8.872498273849487305e-01,9.262580275535583496e-01,2.622189521789550781e+00,9.505643248558044434e-01,-9.107474088668823242e-01,1.431915163993835449e+00,-5.925796031951904297e-01,-1.207900166511535645e+00,-1.239848136901855469e+00,-1.525882482528686523e+00,2.324258834123611450e-01,-1.071653515100479126e-01,9.493803381919860840e-01,5.196765065193176270e-01
5.062869787216186523e-01,7.895017862319946289e-01,-9.202167987823486328e-01,-3.077879250049591064e-01,-7.941877841949462891e-01,1.369055032730102539e+00,5.729621052742004395e-01,-4.769372344017028809e-01,8.468329906463623047e-01,-2.825437486171722412e-02,-3.956296741962432861e-01,4.616286158561706543e-01,6.556035876274108887e-01,1.288282036781311035e+00,-2.549459636211395264e-01,-1.149671912193298340e+00,-8.519725203514099121e-01,3.243444859981536865e-02,1.268037199974060059e+00,5.538475513458251953e-01,-5.438756346702575684e-01,1.023341864347457886e-01,-6.269316077232360840e-01,-6.931451559066772461e-01,-9.794908016920089722e-02,-1.525137126445770264e-01,-7.105236053466796875e-01,8.761100769042968750e-01,4.716415405273437500e-01,-2.324115335941314697e-01
5.923546552658081055e-01,-7.056136727333068848e-01,-6.145192384719848633e-01,4.827990531921386719e-01,-2.856425046920776367e-01,4.563162326812744141e-01,5.538527965545654297e-01,9.664719700813293457e-01,8.172476291656494141e-01,1.547001123428344727e+00,1.492229700088500977e-01,-2.097827643156051636e-01,1.059010624885559082e+00,7.298998236656188965e-01,7.962480187416076660e-01,1.143976926803588867e+00,-9.429960846900939941e-01,-2.995664179325103760e-01,2.263071537017822266e+00,-1.655929386615753174e-01,-1.148893833160400391e+00,-1.635477989912033081e-01,8.186688274145126343e-02,-6.544353961944580078e-01,-7.170050144195556641e-01,-1.081208229064941406e+00,4.846819639205932617e-01,-8.930168747901916504e-01,1.058704614639282227e+00,-4.065579175949096680e-01
-5.065875649452209473e-01,7.920562624931335449e-01,4.761852324008941650e-01,9.619390368461608887e-01,4.947159588336944580e-01,-2.147578746080398560e-01,-3.944051265716552734e-01,-9.780681878328323364e-02,1.622542291879653931e-01,-1.248781681060791016e-01,7.604258060455322266e-01,2.670392096042633057e-01,3.910398483276367188e-01,1.261553764343261719e+00,1.198741272091865540e-01,-6.298708915710449219e-01,-1.869948804378509521e-01,-7.977073788642883301e-01,-3.133051097393035889e-01,-6.566940993070602417e-02,-6.798486113548278809e-01,3.248390257358551025e-01,-7.127996683120727539e-01,-1.088839650154113770e+00,-4.081509709358215332e-01,2.628620564937591553e-01,-9.115214347839355469e-01,-7.466875910758972168e-01,3.116219341754913330e-01,1.390991508960723877e-01
6.715360283851623535e-01,3.482320904731750488e-01,-1.828134894371032715e+00,-9.782319664955139160e-01,1.886878728866577148e+00,8.106130361557006836e-01,-2.330940663814544678e-01,1.147043228149414062e+00,8.376772999763488770e-01,1.077002167701721191e+00,2.424042373895645142e-01,-2.478254735469818115e-01,9.192835688591003418e-01,5.046616792678833008e-01,1.010728240013122559e+00,4.865976870059967041e-01,8.360581398010253906e-01,8.702784776687622070e-01,2.161305427551269531e+00,1.997856497764587402e-01,-1.841741323471069336e+00,5.315460562705993652e-01,-2.881801724433898926e-01,-1.108372449874877930e+00,-1.828688621520996094e+00,-1.140413045883178711e+00,-1.331688165664672852e+00,-4.282690584659576416e-02,1.514391064643859863e+00,1.957808136940002441e-01
8.733317255973815918e-01,2.957387566566467285e-01,8.088233470916748047e-01,4.361825883388519287e-01,-1.123745292425155640e-01,1.813973486423492432e-01,1.898239552974700928e-01,-3.060511350631713867e-01,1.114114999771118164e+00,1.311538815498352051e-01,-3.170208930969238281e-01,8.437231928110122681e-02,-9.793904423713684082e-01,1.003803968429565430e+00,-1.701140776276588440e-02,1.725146770477294922e-01,-1.087277084589004517e-01,-2.303454726934432983e-01,-7.283539772033691406e-01,-3.336980342864990234e-01,2.582202553749084473e-01,5.112070962786674500e-02,-5.335227251052856445e-01,-4.561068415641784668e-01,3.484734147787094116e-02,7.930710315704345703e-01,1.257059630006551743e-02,3.041731119155883789e-01,5.494390726089477539e-01,1.306951195001602173e-01
5.145607590675354004e-01,-9.665390104055404663e-02,-7.162262201309204102e-01,-4.547039270401000977e-01,3.105266392230987549e-01,5.357992053031921387e-01,3.552787303924560547e-01,3.634009659290313721e-01,1.017583161592483521e-01,-6.198288798332214355e-01,-1.046792149543762207e+00,3.701098561286926270e-01,7.170143723487854004e-01,-4.736315310001373291e-01,-2.341954112052917480e-01,2.083958685398101807e-01,3.039271235466003418e-01,-7.202478051185607910e-01,4.900458157062530518e-01,9.357797503471374512e-01,-9.352040886878967285e-01,-4.755762815475463867e-01,-3.408080935478210449e-01,-9.403734207153320312e-01,-1.004740968346595764e-02,-4.883890748023986816e-01,-4.906712770462036133e-01,2.521740198135375977e-01,9.244362115859985352e-01,9.091842174530029297e-01
4.661231338977813721e-01,5.402674674987792969e-01,-1.758854150772094727e+00,3.436059504747390747e-02,1.513589024543762207e-01,3.230053782463073730e-01,-7.490181326866149902e-01,2.524928092956542969e+00,2.393824815750122070e+00,1.522658944129943848e+00,-1.004515662789344788e-01,1.295458674430847168e-01,-2.048966884613037109e-01,7.913473844528198242e-01,1.175037145614624023e+00,-9.002963453531265259e-02,-4.716207981109619141e-01,-3.000846207141876221e-01,2.892970561981201172e+00,5.537699460983276367e-01,-5.122201442718505859e-01,4.294498264789581299e-02,-1.226428151130676270e+00,-5.981969833374023438e-01,-1.299482703208923340e+00,-3.741385042667388916e-01,1.674443930387496948e-01,-1.355053782463073730e-01,9.226601719856262207e-01,-7.567242383956909180e-01
1.373968124389648438e+00,5.805751085281372070e-01,-7.811877131462097168e-01,3.643168210983276367e-01,1.466702938079833984e+00,-2.478614002466201782e-01,9.681748151779174805e-01,6.412537693977355957e-01,1.622412681579589844e+00,1.030979156494140625e+00,-1.219692468643188477e+00,1.809489279985427856e-01,-4.802080392837524414e-01,9.683578014373779297e-01,4.507336914539337158e-01,1.583904981613159180e+00,-1.480195224285125732e-01,3.716618418693542480e-01,1.158564090728759766e+00,7.685526609420776367e-01,-8.471573591232299805e-01,1.385718584060668945e+00,-5.345221161842346191e-01,-1.288417935371398926e+00,1.841861009597778320e-01,-5.401219725608825684e-01,-4.266686439514160156e-01,7.635425776243209839e-02,1.276835650205612183e-01,-3.106391131877899170e-01
-8.169773221015930176e-02,8.545439243316650391e-01,7.819871306419372559e-01,1.039799094200134277e+00,8.496694564819335938e-01,2.173959314823150635e-01,2.890334725379943848e-01,-3.464449644088745117e-01,-1.348252594470977783e-01,7.965702414512634277e-01,2.148807793855667114e-01,-6.529811024665832520e-01,3.202541768550872803e-01,-7.468220591545104980e-01,7.532570958137512207e-01,8.468577265739440918e-01,-7.553626298904418945e-01,-7.053780555725097656e-01,1.077715530991554260e-01,5.850459337234497070e-01,-3.895271718502044678e-01,1.427036672830581665e-01,8.291126489639282227e-01,-8.497778773307800293e-01,-7.490598559379577637e-01,-3.208867013454437256e-01,5.138617157936096191e-01,-4.245460629463195801e-01,-2.067567259073257446e-01,6.589656472206115723e-01
-3.889432251453399658e-01,-2.593035697937011719e-01,-1.473415970802307129e+00,-4.715462625026702881e-01,3.161481916904449463e-01,5.507109165191650391e-01,5.072138309478759766e-01,1.134072780609130859e+00,1.014919757843017578e+00,7.457255721092224121e-01,-7.730596661567687988e-01,-2.626627683639526367e-02,8.357279300689697266e-01,1.753674030303955078e+00,-4.610114395618438721e-01,1.697675436735153198e-01,-4.586368501186370850e-01,-1.748200953006744385e-01,1.263385891914367676e+00,7.556266784667968750e-01,5.818920582532882690e-02,2.328233420848846436e-01,5.094073414802551270e-01,-1.419199228286743164e+00,-3.973082304000854492e-01,-5.539044141769409180e-01,-9.304619431495666504e-01,-5.041647553443908691e-01,1.791257262229919434e+00,1.206064343452453613e+00
7.187206745147705078e-01,9.459806680679321289e-01,-1.212966084480285645e+00,-7.995001077651977539e-01,1.447777271270751953e+00,-6.853253245353698730e-01,-2.226841449737548828e-01,1.808816075325012207e+00,2.538619279861450195e+00,1.751695156097412109e+00,-9.931668043136596680e-01,8.639501929283142090e-01,-2.302427738904953003e-01,1.994773149490356445e+00,2.162028789520263672e+00,3.201573491096496582e-01,-1.580912917852401733e-01,1.112245202064514160e+00,2.145078182220458984e+00,3.908863291144371033e-02,-2.745667397975921631e-01,-5.040963739156723022e-02,1.885874122381210327e-01,-9.355705380439758301e-01,-8.208276331424713135e-02,-1.236656069755554199e+00,-1.473585218191146851e-01,-3.637360632419586182e-01,9.123876094818115234e-01,7.402254343032836914e-01
-5.607720017433166504e-01,1.564980983734130859e+00,-3.178170025348663330e-01,1.232292130589485168e-01,2.108444124460220337e-01,1.994620800018310547e+00,-3.763699829578399658e-01,-3.119176030158996582e-01,1.002811789512634277e-01,3.008187770843505859e+00,1.031114697456359863e+00,1.681709766387939453e+00,-8.591203093528747559e-01,1.458787322044372559e+00,7.654241323471069336e-01,2.411800622940063477e-01,-9.277882575988769531e-01,-1.085182800889015198e-01,2.042860537767410278e-01,6.722394824028015137e-01,-1.637721300125122070e+00,1.087875127792358398e+00,-8.698467016220092773e-01,-1.831209182739257812e+00,-9.053011536598205566e-01,-8.225688338279724121e-01,-1.086355924606323242e+00,4.005285501480102539e-01,2.476926565170288086e+00,-4.340621083974838257e-02
4.408871829509735107e-01,3.032674193382263184e-01,-2.101635187864303589e-01,-3.566759824752807617e-01,5.656849741935729980e-01,1.724912673234939575e-01,5.634102225303649902e-01,2.172052621841430664e+00,2.162739515304565430e+00,1.492788195610046387e+00,-7.559798955917358398e-01,1.845571696758270264e-01,3.690541535615921021e-02,1.553142666816711426e+00,1.866789102554321289e+00,9.561826586723327637e-01,-5.725624561309814453e-01,-3.639132976531982422e-01,2.007144927978515625e+00,1.041142106056213379e+00,3.849930465221405029e-01,-6.557742953300476074e-01,-6.953208446502685547e-01,-1.846999645233154297e+00,8.900593221187591553e-02,-3.521502912044525146e-01,2.040418237447738647e-01,4.154660105705261230e-01,1.031031489372253418e+00,-1.402017831802368164e+00
1.377277255058288574e+00,-8.141546845436096191e-01,-1.776925086975097656e+00,-1.967424452304840088e-01,2.035268306732177734e+00,-7.546299695968627930e-01,-8.739719986915588379e-01,2.438614606857299805e+00,1.728001117706298828e+00,2.041699886322021484e+00,-6.054975390434265137e-01,5.780255794525146484e-01,7.184755206108093262e-01,1.437592864036560059e+00,2.018564939498901367e+00,2.234561443328857422e+00,9.272892028093338013e-02,-5.875319242477416992e-02,3.668611049652099609e+00,1.908206582069396973e+00,-1.047126650810241699e+00,-1.916236616671085358e-02,-1.290822267532348633e+00,-9.389147162437438965e-01,8.261484652757644653e-02,-2.014499425888061523e+00,-7.558274269104003906e-01,-2.400934994220733643e-01,2.350561857223510742e+00,-1.291715741157531738e+00
-3.907687664031982422e-01,8.406965732574462891e-01,-7.193232178688049316e-01,-3.882574141025543213e-01,9.405302405357360840e-01,-9.628531336784362793e-02,-4.717056453227996826e-01,-1.354632526636123657e-01,4.965707361698150635e-01,-6.263327598571777344e-01,-9.241300225257873535e-01,4.597162082791328430e-02,6.272151321172714233e-02,9.181182384490966797e-01,4.569341838359832764e-01,-1.425108611583709717e-01,-3.401564657688140869e-01,-9.437276124954223633e-01,5.335264205932617188e-01,3.550395742058753967e-02,2.868975885212421417e-02,6.896746158599853516e-01,-5.342099070549011230e-01,-6.899605393409729004e-01,-5.472400784492492676e-01,7.827311754226684570e-01,6.156756877899169922e-01,5.588762164115905762e-01,-3.436036109924316406e-01,5.697081685066223145e-01
2.606895267963409424e-01,2.657654881477355957e-01,-7.376919984817504883e-01,-1.252873148769140244e-02,1.288464307785034180e+00,9.338287264108657837e-02,-3.842704296112060547e-01,-7.771972417831420898e-01,1.482269763946533203e+00,-9.195968508720397949e-02,-2.639724314212799072e-01,6.099542975425720215e-01,4.922026991844177246e-01,9.255778193473815918e-01,1.405500888824462891e+00,3.066926002502441406e-01,-1.594566583633422852e+00,-1.159717738628387451e-01,2.158763170242309570e+00,5.198557972908020020e-01,-4.959806203842163086e-01,1.200453639030456543e-01,7.178035564720630646e-03,-4.176527559757232666e-01,-7.608638703823089600e-02,-1.181552529335021973e+00,6.554017066955566406e-01,7.988944649696350098e-01,8.245375156402587891e-01,-7.523126155138015747e-02
-6.507548093795776367e-01,-6.089233756065368652e-01,3.416610509157180786e-02,-3.100515604019165039e-01,1.452161669731140137e+00,3.774724602699279785e-01,3.699305653572082520e-01,1.017052292823791504e+00,1.961906433105468750e+00,4.408720731735229492e-01,-2.421986758708953857e-01,-3.163314163684844971e-01,1.067664980888366699e+00,1.809306740760803223e+00,-2.332566678524017334e-01,1.846111267805099487e-01,-9.032585620880126953e-01,5.749589204788208008e-01,9.957580566406250000e-01,-1.473837792873382568e-01,-3.841901719570159912e-01,-2.359113544225692749e-01,-7.484696060419082642e-02,-2.403703331947326660e-01,7.613965123891830444e-02,-7.920558452606201172e-01,-8.903041481971740723e-01,3.031050562858581543e-01,-3.278523087501525879e-01,-4.584332704544067383e-01
1.404692530632019043e-01,4.779384136199951172e-01,-6.240460276603698730e-01,4.321903884410858154e-01,1.262893915176391602e+00,1.475842833518981934e+00,1.099021077156066895e+00,1.251488208770751953e+00,1.529353737831115723e+00,2.247957468032836914e+00,-2.280390113592147827e-01,1.725436806678771973e+00,-4.037916958332061768e-01,1.875160455703735352e+00,1.719289422035217285e+00,5.931631922721862793e-01,5.759586691856384277e-01,1.127822518348693848e+00,3.292024374008178711e+00,1.630002260208129883e+00,-7.342645525932312012e-01,6.219462752342224121e-01,-6.927231550216674805e-01,-1.749210476875305176e+00,-1.151454687118530273e+00,-1.246769189834594727e+00,-3.103564977645874023e-01,3.038795888423919678e-01,1.016404390335083008e+00,-2.777791023254394531e-01
1.474883556365966797e+00,-2.112300843000411987e-01,-2.284696102142333984e+00,-1.124420762062072754e+00,7.567300796508789062e-01,-2.560919225215911865e-01,-1.734286993741989136e-01,1.785722255706787109e+00,9.553011059761047363e-01,1.365136742591857910e+00,8.214632421731948853e-02,-1.835796236991882324e-01,-3.688051551580429077e-02,9.013870358467102051e-01,2.068298578262329102e+00,1.587756872177124023e-01,3.449733257293701172e-01,7.148803472518920898e-01,3.516189098358154297e+00,3.485238552093505859e-01,-6.505979895591735840e-01,-3.449302315711975098e-01,-1.117453813552856445e+00,-1.936167120933532715e+00,-1.077842950820922852e+00,-2.046993970870971680e+00,-8.035346865653991699e-01,-4.105398058891296387e-01,3.568349778652191162e-01,-2.265653461217880249e-01
